Chapter 13 Advanced & Miscellaneous Topics | rxode2 user manual
…
#> -- Solved rxode2 object --
#> -- Parameters ($params): --
#>      KA      V2       Q      V3     Kin    Kout    EC50      Tz     amp 
#>   0.294  40.200  10.500 297.000   1.000   1.000 200.000   8.000   0.100 
#> -- Initial Conditions ($inits): --
#> eff 
#>   1 
#> -- First part of data (object): --
#> # A tibble: 400 x 6
#>      id  time    CL    C2   eff    WT
#>   <int>   [h] <dbl> <dbl> <dbl> <dbl>
#> 1     1 0      18.6 249.      1  70.2
#> 2     1 0.485  18.6 175.      1  70.2
#> 3     1 0.970  18.6 124.      1  70.2
#> 4     1 1.45   18.6  87.9     1  70.2
#> 5     1 1.94   18.6  62.7     1  70.2
#> 6     1 2.42   18.6  45.1     1  70.2
#> # i 394 more rows
…
r1 <- solve(mod3, ev, covsInterpolation="linear")
print(r1)
#> -- Solved rxode2 object --
#> -- Parameters ($params): --
#>         KA         CL         V2          Q         V3       Kin0       Kout 
#>   0.294000  18.600000  40.200000  10.500000 297.000000   1.000000   1.000000 
#>       EC50         Tz        amp         pi 
#> 200.000000   8.000000   0.100000   3.141593 
#> -- Initial Conditions ($inits): --
#> eff 
#>   1 
#> -- First part of data (object): --
#> # A tibble: 100 x 5
#>    time    C2   Kin   eff ctime
#>     [h] <dbl> <dbl> <dbl>   [h]
#> 1 0     249.   1.1   1     8   
#> 2 0.485 175.   1.10  1.04  8.48
#> 3 0.970 124.   1.10  1.06  8.97
#> 4 1.45   88.0  1.09  1.07  9.45
#> 5 1.94   62.9  1.09  1.08  9.94
#> 6 2.42   45.2  1.08  1.08 10.4 
#> # i 94 more rows
…
r1 <- solve(mod3, ev,covsInterpolation="locf")
print(r1)
#> -- Solved rxode2 object --
#> -- Parameters ($params): --
#>         KA         CL         V2          Q         V3       Kin0       Kout 
#>   0.294000  18.600000  40.200000  10.500000 297.000000   1.000000   1.000000 
#>       EC50         Tz        amp         pi 
#> 200.000000   8.000000   0.100000   3.141593 
#> -- Initial Conditions ($inits): --
#> eff 
#>   1 
#> -- First part of data (object): --
#> # A tibble: 100 x 5
#>    time    C2   Kin   eff ctime
#>     [h] <dbl> <dbl> <dbl>   [h]
#> 1 0     249.   1.1   1     8   
#> 2 0.485 175.   1.10  1.04  8.48
#> 3 0.970 124.   1.10  1.06  8.97
#> 4 1.45   88.0  1.09  1.08  9.45
#> 5 1.94   62.9  1.09  1.08  9.94
#> 6 2.42   45.2  1.08  1.08 10.4 
#> # i 94 more rows
…
r1 <- solve(mod3, ev,covsInterpolation="nocb")
print(r1)
#> -- Solved rxode2 object --
#> -- Parameters ($params): --
#>         KA         CL         V2          Q         V3       Kin0       Kout 
#>   0.294000  18.600000  40.200000  10.500000 297.000000   1.000000   1.000000 
#>       EC50         Tz        amp         pi 
#> 200.000000   8.000000   0.100000   3.141593 
#> -- Initial Conditions ($inits): --
#> eff 
#>   1 
#> -- First part of data (object): --
#> # A tibble: 100 x 5
#>    time    C2   Kin   eff ctime
#>     [h] <dbl> <dbl> <dbl>   [h]
#> 1 0     249.   1.1   1     8   
#> 2 0.485 175.   1.10  1.04  8.48
#> 3 0.970 124.   1.10  1.06  8.97
#> 4 1.45   88.0  1.09  1.07  9.45
#> 5 1.94   62.9  1.09  1.08  9.94
#> 6 2.42   45.2  1.08  1.08 10.4 
#> # i 94 more rows
…
library(dplyr)
pars <- rxInits(Ribba2012);
pars <- pars[regexpr("(prop|eta)",names(pars)) == -1]
print(pars)
#>        k     tkde     tkpq    tkqpp tlambdap   tgamma tdeltaqp     tpt0 
#> 1.00e+02 2.40e-01 2.95e-02 3.10e-03 1.21e-01 7.29e-01 8.67e-03 7.13e+00 
#>      tq0 
#> 4.12e+01
#### This is the exported method for simulation of Theta/Omega internally in rxode2
df <- rxSimThetaOmega(params=pars, omega=omega,dfSub=760,
                      thetaMat=thetaMat, thetaLower=0, nSub=60,nStud=60) %>%
    filter(tkde > tlambdap) %>% as.tbl()
#### You could also simulate more and bind them together to a data frame.
print(df)
#> # A tibble: 1,860 x 16
#>        k  tkde   tkpq tkqpp tlambdap tgamma tdeltaqp  tpt0   tq0 eta.pt0  eta.q0
#>    <dbl> <dbl>  <dbl> <dbl>    <dbl>  <dbl>    <dbl> <dbl> <dbl>   <dbl>   <dbl>
#>  1   100  1.50 0.0295 0.404     1.25   1.16    0.318  7.21  41.5 -0.911  -0.0212
#>  2   100  1.50 0.0295 0.404     1.25   1.16    0.318  7.21  41.5 -0.275   0.537 
#>  3   100  1.50 0.0295 0.404     1.25   1.16    0.318  7.21  41.5  0.213  -0.408 
#>  4   100  1.50 0.0295 0.404     1.25   1.16    0.318  7.21  41.5 -0.0557  0.0625
#>  5   100  1.50 0.0295 0.404     1.25   1.16    0.318  7.21  41.5 -0.239   0.609 
#>  6   100  1.50 0.0295 0.404     1.25   1.16    0.318  7.21  41.5  0.555  -0.173 
#>  7   100  1.50 0.0295 0.404     1.25   1.16    0.318  7.21  41.5  0.418   0.929 
#>  8   100  1.50 0.0295 0.404     1.25   1.16    0.318  7.21  41.5  0.329  -0.348 
#>  9   100  1.50 0.0295 0.404     1.25   1.16    0.318  7.21  41.5 -0.0251  0.920 
#> 10   100  1.50 0.0295 0.404     1.25   1.16    0.318  7.21  41.5 -0.106  -0.405 
#> # i 1,850 more rows
#> # i 5 more variables: eta.lambdap <dbl>, eta.kqp <dbl>, eta.qpp <dbl>,
#> #   eta.deltaqp <dbl>, eta.kde <dbl>
…
et <- eventTable();
et$add.sampling(seq(0, 10, length.out=200));
et$add.dosing(20, start.time=0);

s1 <- Vtpol2 %>%  solve(et, method="lsoda")
print(s1)
#> -- Solved rxode2 object --
#> -- Parameters ($params): --
#> mu 
#>  1 
#> -- Initial Conditions ($inits): --
#>  y dy 
#>  2  0 
#> -- First part of data (object): --
#> # A tibble: 200 x 3
#>     time     y      dy
#>    <dbl> <dbl>   <dbl>
#> 1 0       22    0     
#> 2 0.0503  22.0 -0.0456
#> 3 0.101   22.0 -0.0456
#> 4 0.151   22.0 -0.0456
#> 5 0.201   22.0 -0.0456
#> 6 0.251   22.0 -0.0456
#> # i 194 more rows

While this is not stiff at mu=1, mu=1000 is a stiff system

s2 <- Vtpol2 %>%  solve(c(mu=1000), et)
print(s2)
#> -- Solved rxode2 object --
#> -- Parameters ($params): --
#>   mu 
#> 1000 
#> -- Initial Conditions ($inits): --
#>  y dy 
#>  2  0 
#> -- First part of data (object): --
#> # A tibble: 200 x 3
#>     time     y         dy
#>    <dbl> <dbl>      <dbl>
#> 1 0       22    0        
#> 2 0.0503  22.0 -0.0000455
#> 3 0.101   22.0 -0.0000455
#> 4 0.151   22.0 -0.0000455
#> 5 0.201   22.0 -0.0000455
#> 6 0.251   22.0 -0.0000455
#> # i 194 more rows
…
