Chapter 13 Creating weight based event table | RxODE user manual
…
e <- et() %>%
    ## Specify the id and weight based dosing from covariate data.frame
    ## This requires RxODE XXX 
    et(id=cov.df$id, amt=6*cov.df$WT, rate=6 * cov.df$WT) %>%
    ## Sampling is added for each ID
    et(s) %>%
    as.data.frame %>%
    ## Merge the event table with the covarite information
    merge(cov.df, by="id") %>%
    as_tibble

e

#> # A tibble: 900 x 12
#>       id    low  time   high cmt         amt  rate  evid   AGE   SEX    WT  CRCL
#>    <int>  <dbl> <dbl>  <dbl> <chr>     <dbl> <dbl> <int> <dbl> <dbl> <dbl> <dbl>
#>  1     1  0     0      0     (obs)       NA    NA      0    66     1  49.4    83
#>  2     1 NA     0     NA     (default)  296.  296.     1    66     1  49.4    83
#>  3     1  0.225 0.246  0.275 (obs)       NA    NA      0    66     1  49.4    83
#>  4     1  0.45  0.516  0.55  (obs)       NA    NA      0    66     1  49.4    83
#>  5     1  0.675 0.729  0.825 (obs)       NA    NA      0    66     1  49.4    83
#>  6     1  0.9   0.921  1.1   (obs)       NA    NA      0    66     1  49.4    83
#>  7     1  1.35  1.42   1.65  (obs)       NA    NA      0    66     1  49.4    83
#>  8     1  1.8   1.82   2.2   (obs)       NA    NA      0    66     1  49.4    83
#>  9     1  2.7   2.97   3.3   (obs)       NA    NA      0    66     1  49.4    83
#> 10     1  3.6   3.87   4.4   (obs)       NA    NA      0    66     1  49.4    83
#> # ... with 890 more rows
