Chapter 8 Easily creating rxode2 events | rxode2 user manual
…
ev

#> ── EventTable with 804 records ──
#> 4 dosing records (see x$get.dosing(); add with add.dosing
#> or et)
#> 800 observation times (see x$get.sampling(); add with
#> add.sampling or et)
#> multiple doses in `addl` columns, expand with x$expand();
#> or etExpand(x)
#> ── First part of x: ──
#> # A tibble: 804 × 6
#>       id  time   amt  ii  addl evid         
#>    <int>   [h] <dbl> [h] <int> <evid>       
#>  1     1 0        NA  NA    NA 0:Observation
#>  2     1 0     10000  12     6 1:Dose (Add) 
#>  3     1 0.241    NA  NA    NA 0:Observation
#>  4     1 0.482    NA  NA    NA 0:Observation
#>  5     1 0.724    NA  NA    NA 0:Observation
#>  6     1 0.965    NA  NA    NA 0:Observation
#>  7     1 1.21     NA  NA    NA 0:Observation
#>  8     1 1.45     NA  NA    NA 0:Observation
#>  9     1 1.69     NA  NA    NA 0:Observation
#> 10     1 1.93     NA  NA    NA 0:Observation
#> # ℹ 794 more rows
…
