Chapter 12 Examples | rxode2 user manual
…
Solving the rxode2 models are the same as saving the simple ODE system, but faster of course.

et  <- et(seq(0,24,length.out=50))
cmt1 <- rxSolve(mod,et,params=c(ke=0.5))
cmt1

#> ── Solved rxode2 object ──
#> ── Parameters (x$params): ──
#>  ke 
#> 0.5 
#> ── Initial Conditions (x$inits): ──
#> named numeric(0)
#> ── First part of data (object): ──
#> # A tibble: 50 × 2
#>    time  ipre
#>   <dbl> <dbl>
#> 1 0     10   
#> 2 0.490  7.83
#> 3 0.980  6.13
#> 4 1.47   4.80
#> 5 1.96   3.75
#> 6 2.45   2.94
#> # ℹ 44 more rows
…
et  <- et(amt=10,time=0,cmt=depot) %>%
    et(seq(0,24,length.out=50))
cmt1 <- rxSolve(mod,et,params=c(ke=0.5))
cmt1

#> ── Solved rxode2 object ──
#> ── Parameters (x$params): ──
#>  ke   V 
#> 0.5 1.0 
#> ── Initial Conditions (x$inits): ──
#> named numeric(0)
#> ── First part of data (object): ──
#> # A tibble: 50 × 2
#>    time  ipre
#>   <dbl> <dbl>
#> 1 0     10   
#> 2 0.490  7.83
#> 3 0.980  6.13
#> 4 1.47   4.80
#> 5 1.96   3.75
#> 6 2.45   2.94
#> # ℹ 44 more rows
…
This can be solved with the following command:

x <- mod2 %>%  solve(theta, ev)
print(x)

#> ── Solved rxode2 object ──
#> ── Parameters ($params): ──
#>      CL      V2       Q      V3      KA     Kin    Kout    EC50 
#>  18.600  40.200  10.500 297.000   0.294   1.000   1.000 200.000 
#> ── Initial Conditions ($inits): ──
#> eff 
#>   1 
#> ── First part of data (object): ──
#> # A tibble: 241 × 3
#>   time    C2   eff
#>    [h] <dbl> <dbl>
#> 1    0 249.   1   
#> 2    1 121.   1.35
#> 3    2  60.3  1.38
#> 4    3  31.0  1.28
#> 5    4  17.0  1.18
#> 6    5  10.2  1.11
#> # ℹ 235 more rows
…
This can be solved for different initial conditions easily:

x <- mod2 %>%  solve(theta, ev,c(eff=2))
print(x)

#> ── Solved rxode2 object ──
#> ── Parameters ($params): ──
#>      CL      V2       Q      V3      KA     Kin    Kout    EC50 
#>  18.600  40.200  10.500 297.000   0.294   1.000   1.000 200.000 
#> ── Initial Conditions ($inits): ──
#> eff 
#>   2 
#> ── First part of data (object): ──
#> # A tibble: 241 × 3
#>   time    C2   eff
#>    [h] <dbl> <dbl>
#> 1    0 249.   2   
#> 2    1 121.   1.93
#> 3    2  60.3  1.67
#> 4    3  31.0  1.41
#> 5    4  17.0  1.23
#> 6    5  10.2  1.13
#> # ℹ 235 more rows
…
x <- mod3 %>%  solve(ev)
print(x)

#> ── Solved rxode2 object ──
#> ── Parameters ($params): ──
#>      KA      CL      V2       Q      V3     Kin    Kout    EC50 
#>   0.294  18.600  40.200  10.500 297.000   1.000   1.000 200.000 
#> ── Initial Conditions ($inits): ──
#> eff 
#>   1 
#> ── First part of data (object): ──
#> # A tibble: 241 × 3
#>   time    C2   eff
#>    [h] <dbl> <dbl>
#> 1    0 249.   1   
#> 2    1 121.   1.35
#> 3    2  60.3  1.38
#> 4    3  31.0  1.28
#> 5    4  17.0  1.18
#> 6    5  10.2  1.11
#> # ℹ 235 more rows
Note that you do not specify the parameters when solving the system
since they are built into the model, but you can override the parameters:

x <- mod3 %>%  solve(c(KA=10),ev)
print(x)

#> ── Solved rxode2 object ──
#> ── Parameters ($params): ──
#>    KA    CL    V2     Q    V3   Kin  Kout  EC50 
#>  10.0  18.6  40.2  10.5 297.0   1.0   1.0 200.0 
#> ── Initial Conditions ($inits): ──
#> eff 
#>   1 
#> ── First part of data (object): ──
#> # A tibble: 241 × 3
#>   time    C2   eff
#>    [h] <dbl> <dbl>
#> 1    0 249.   1   
#> 2    1 121.   1.35
#> 3    2  60.3  1.38
#> 4    3  31.0  1.28
#> 5    4  17.0  1.18
#> 6    5  10.2  1.11
#> # ℹ 235 more rows
…
nsub=30
### Simulate Weight based on age and gender
AGE<-round(runif(nsub,min=18,max=70))
SEX<-round(runif(nsub,min=0,max=1))
HTm<-round(rnorm(nsub,176.3,0.17*sqrt(4482)),digits=1)
HTf<-round(rnorm(nsub,162.2,0.16*sqrt(4857)),digits=1)
WTm<-round(exp(3.28+1.92*log(HTm/100))*exp(rnorm(nsub,0,0.14)),digits=1)
WTf<-round(exp(3.49+1.45*log(HTf/100))*exp(rnorm(nsub,0,0.17)),digits=1)
WT<-ifelse(SEX==1,WTf,WTm)
CRCL<-round(runif(nsub,30,140))
## id is in lower case to match the event table
cov.df <- tibble(id=seq_along(AGE), AGE=AGE, SEX=SEX, WT=WT, CRCL=CRCL)
print(cov.df)

#> # A tibble: 30 x 5
#>       id   AGE   SEX    WT  CRCL
#>    <int> <dbl> <dbl> <dbl> <dbl>
#>  1     1    66     1  49.4    83
#>  2     2    67     1  52.5    79
#>  3     3    33     0  97.9    37
#>  4     4    61     1  63.8    66
#>  5     5    51     0  71.8   127
#>  6     6    45     1  69.6   132
#>  7     7    56     0  61      73
#>  8     8    25     0  57.7    47
#>  9     9    52     1  58.7    65
#> 10    10    55     1  73.1    64
#> # i 20 more rows
…
e <- et() %>%
    ## Specify the id and weight based dosing from covariate data.frame
    ## This requires rxode2 XXX 
    et(id=cov.df$id, amt=6*cov.df$WT, rate=6 * cov.df$WT) %>%
    ## Sampling is added for each ID
    et(s) %>%
    as.data.frame %>%
    ## Merge the event table with the covarite information
    merge(cov.df, by="id") %>%
    as_tibble

e

#> # A tibble: 900 x 12
#>       id    low  time   high cmt         amt  rate  evid   AGE   SEX    WT  CRCL
#>    <int>  <dbl> <dbl>  <dbl> <chr>     <dbl> <dbl> <int> <dbl> <dbl> <dbl> <dbl>
#>  1     1  0     0      0     (obs)       NA    NA      0    66     1  49.4    83
#>  2     1 NA     0     NA     (default)  296.  296.     1    66     1  49.4    83
#>  3     1  0.225 0.246  0.275 (obs)       NA    NA      0    66     1  49.4    83
#>  4     1  0.45  0.516  0.55  (obs)       NA    NA      0    66     1  49.4    83
#>  5     1  0.675 0.729  0.825 (obs)       NA    NA      0    66     1  49.4    83
#>  6     1  0.9   0.921  1.1   (obs)       NA    NA      0    66     1  49.4    83
#>  7     1  1.35  1.42   1.65  (obs)       NA    NA      0    66     1  49.4    83
#>  8     1  1.8   1.82   2.2   (obs)       NA    NA      0    66     1  49.4    83
#>  9     1  2.7   2.97   3.3   (obs)       NA    NA      0    66     1  49.4    83
#> 10     1  3.6   3.87   4.4   (obs)       NA    NA      0    66     1  49.4    83
#> # i 890 more rows
…
data <- rxSolve(m1, e,
             ## Lotri uses lower-triangular matrix rep. for named matrix
             omega=lotri(eta.cl ~ .306, 
                         eta.q ~0.0652,
                         eta.v1 ~.567,
                         eta.v2 ~ .191),
             sigma=lotri(prop.err ~ 0.15),
             addDosing = TRUE, addCov = TRUE)

print(data)

#> -- Solved rxode2 object --
#> -- Parameters ($params): --
#> # A tibble: 30 x 5
#>    id      eta.cl  eta.v1    eta.q  eta.v2
#>    <fct>    <dbl>   <dbl>    <dbl>   <dbl>
#>  1 1     -0.852    0.158   0.00529  0.0100
#>  2 2     -0.444   -1.09   -0.374   -0.296 
#>  3 3      0.930    0.553   0.0127  -0.446 
#>  4 4     -0.813    0.0732 -0.230    0.211 
#>  5 5      0.219    0.175  -0.0883  -0.122 
#>  6 6     -0.875   -0.0607  0.0823   0.541 
#>  7 7     -0.463    0.611   0.613   -0.630 
#>  8 8      0.0513   0.167  -0.0800  -0.892 
#>  9 9      0.220   -1.02    0.312    0.481 
#> 10 10     0.00477  0.547  -0.216   -0.482 
#> # i 20 more rows
#> -- Initial Conditions ($inits): --
#> centr  peri 
#>     0     0 
#> -- First part of data (object): --
#> # A tibble: 900 x 10
#>      id  evid   cmt   amt  rate  time    DV   SEX    WT  CRCL
#>   <int> <int> <int> <dbl> <dbl> <dbl> <dbl> <dbl> <dbl> <dbl>
#> 1     1     1     1  296.  296. 0       0       1  49.4    83
#> 2     1     0    NA   NA    NA  0       0       1  49.4    83
#> 3     1     0    NA   NA    NA  0.246  20.0     1  49.4    83
#> 4     1     0    NA   NA    NA  0.516  25.3     1  49.4    83
#> 5     1     0    NA   NA    NA  0.729  19.4     1  49.4    83
#> 6     1     0    NA   NA    NA  0.921  38.3     1  49.4    83
#> # i 894 more rows
…
#> unhandled error message: EE:[lsoda] 70000 steps taken before reaching tout
#>  @(lsoda.c:750

#> Warning: some ID(s) could not solve the ODEs correctly; These values are
#> replaced with 'NA'

print(s)

#> -- Solved rxode2 object --
#> -- Parameters ($params): --
#> # A tibble: 8,000 x 24
#>    sim.id id    `inv.Cl(inv==1)` `inv.Cl(inv==2)` `inv.Ka(inv==1)`
#>     <int> <fct>            <dbl>            <dbl>            <dbl>
#>  1      1 1                0.251           0.0765          -0.0741
#>  2      1 2                0.251           0.0765          -0.0741
#>  3      1 3                0.251           0.0765          -0.0741
#>  4      1 4                0.251           0.0765          -0.0741
#>  5      1 5                0.251           0.0765          -0.0741
#>  6      1 6                0.251           0.0765          -0.0741
#>  7      1 7                0.251           0.0765          -0.0741
#>  8      1 8                0.251           0.0765          -0.0741
#>  9      1 9                0.251           0.0765          -0.0741
#> 10      1 10               0.251           0.0765          -0.0741
#> # i 7,990 more rows
#> # i 19 more variables: `inv.Ka(inv==2)` <dbl>, `eye.Cl(eye==1)` <dbl>,
#> #   `eye.Cl(eye==2)` <dbl>, `eye.Ka(eye==1)` <dbl>, `eye.Ka(eye==2)` <dbl>,
#> #   `iov.Cl(occ==1)` <dbl>, `iov.Cl(occ==2)` <dbl>, `iov.Ka(occ==1)` <dbl>,
#> #   `iov.Ka(occ==2)` <dbl>, V2 <dbl>, V3 <dbl>, TCl <dbl>, eta.Cl <dbl>,
#> #   TKA <dbl>, eta.Ka <dbl>, Q <dbl>, Kin <dbl>, Kout <dbl>, EC50 <dbl>
#> -- Initial Conditions ($inits): --
#> depot centr  peri   eff 
#>     0     0     0     1 
#> 
#> Simulation with uncertainty in:
#> * parameters ($thetaMat for changes)
#> * omega matrix ($omegaList)
#> 
#> -- First part of data (object): --
#> # A tibble: 976,000 x 21
#>   sim.id    id time inv.Cl  inv.Ka eye.Cl  eye.Ka   iov.Cl iov.Ka     C2     C3
#>    <int> <int>  [h]  <dbl>   <dbl>  <dbl>   <dbl>    <dbl>  <dbl>  <dbl>  <dbl>
#> 1      1     1  0    0.251 -0.0741 0.0127 -0.156  -0.00963 0.0813  0     0     
#> 2      1     1  0.1  0.251 -0.0741 0.122  -0.0143 -0.00963 0.0813 13.5   0.0159
#> 3      1     1  4    0.251 -0.0741 0.0127 -0.156  -0.00963 0.0813  2.36  3.80  
#> 4      1     1  4.1  0.251 -0.0741 0.122  -0.0143 -0.00963 0.0813  8.16  3.84  
#> 5      1     1  8    0.251 -0.0741 0.0127 -0.156  -0.00963 0.0813  0.392 4.26  
#> 6      1     1  8.1  0.251 -0.0741 0.122  -0.0143 -0.00963 0.0813  0.728 4.25  
#> # i 975,994 more rows
#> # i 10 more variables: CL <dbl>, KA <dbl>, ef0 <dbl>, depot <dbl>, centr <dbl>,
#> #   peri <dbl>, eff <dbl>, occ <fct>, eye <fct>, inv <fct>
…
