Chapter 15 Mixing Solved Systems and ODEs. | RxODE user manual
…
This can be solved with the following command:

x <- mod2 %>%  solve(theta, ev)
print(x)

#> ▂▂▂▂▂▂▂▂▂▂▂▂▂▂▂▂▂▂▂▂ Solved RxODE object ▂▂▂▂▂▂▂▂▂▂▂▂▂▂▂▂▂▂▂
#> ── Parameters ($params): ───────────────────────────────────
#>      CL      V2       Q      V3      KA     Kin    Kout    EC50 
#>  18.600  40.200  10.500 297.000   0.294   1.000   1.000 200.000 
#> ── Initial Conditions ($inits): ────────────────────────────
#> eff 
#>   1 
#> ── First part of data (object): ────────────────────────────
#> # A tibble: 241 x 3
#>    time    C2   eff
#>     [h] <dbl> <dbl>
#> 1     0 249.   1   
#> 2     1 121.   1.35
#> 3     2  60.3  1.38
#> 4     3  31.0  1.28
#> 5     4  17.0  1.18
#> 6     5  10.2  1.11
#> # … with 235 more rows
…
This can be solved for different initial conditions easily:

x <- mod2 %>%  solve(theta, ev,c(eff=2))
print(x)

#> ▂▂▂▂▂▂▂▂▂▂▂▂▂▂▂▂▂▂▂▂ Solved RxODE object ▂▂▂▂▂▂▂▂▂▂▂▂▂▂▂▂▂▂▂
#> ── Parameters ($params): ───────────────────────────────────
#>      CL      V2       Q      V3      KA     Kin    Kout    EC50 
#>  18.600  40.200  10.500 297.000   0.294   1.000   1.000 200.000 
#> ── Initial Conditions ($inits): ────────────────────────────
#> eff 
#>   2 
#> ── First part of data (object): ────────────────────────────
#> # A tibble: 241 x 3
#>    time    C2   eff
#>     [h] <dbl> <dbl>
#> 1     0 249.   2   
#> 2     1 121.   1.93
#> 3     2  60.3  1.67
#> 4     3  31.0  1.41
#> 5     4  17.0  1.23
#> 6     5  10.2  1.13
#> # … with 235 more rows
…
x <- mod3 %>%  solve(ev)
print(x)

#> ▂▂▂▂▂▂▂▂▂▂▂▂▂▂▂▂▂▂▂▂ Solved RxODE object ▂▂▂▂▂▂▂▂▂▂▂▂▂▂▂▂▂▂▂
#> ── Parameters ($params): ───────────────────────────────────
#>      KA      CL      V2       Q      V3     Kin    Kout    EC50 
#>   0.294  18.600  40.200  10.500 297.000   1.000   1.000 200.000 
#> ── Initial Conditions ($inits): ────────────────────────────
#> eff 
#>   1 
#> ── First part of data (object): ────────────────────────────
#> # A tibble: 241 x 3
#>    time    C2   eff
#>     [h] <dbl> <dbl>
#> 1     0 249.   1   
#> 2     1 121.   1.35
#> 3     2  60.3  1.38
#> 4     3  31.0  1.28
#> 5     4  17.0  1.18
#> 6     5  10.2  1.11
#> # … with 235 more rows
…
Note that you do not specify the parameters when solving the system
since they are built into the model, but you can override the parameters:

x <- mod3 %>%  solve(c(KA=10),ev)
print(x)

#> ▂▂▂▂▂▂▂▂▂▂▂▂▂▂▂▂▂▂▂▂ Solved RxODE object ▂▂▂▂▂▂▂▂▂▂▂▂▂▂▂▂▂▂▂
#> ── Parameters ($params): ───────────────────────────────────
#>    KA    CL    V2     Q    V3   Kin  Kout  EC50 
#>  10.0  18.6  40.2  10.5 297.0   1.0   1.0 200.0 
#> ── Initial Conditions ($inits): ────────────────────────────
#> eff 
#>   1 
#> ── First part of data (object): ────────────────────────────
#> # A tibble: 241 x 3
#>    time    C2   eff
#>     [h] <dbl> <dbl>
#> 1     0 249.   1   
#> 2     1 121.   1.35
#> 3     2  60.3  1.38
#> 4     3  31.0  1.28
#> 5     4  17.0  1.18
#> 6     5  10.2  1.11
#> # … with 235 more rows
…
nsub=30
### Simulate Weight based on age and gender
AGE<-round(runif(nsub,min=18,max=70))
SEX<-round(runif(nsub,min=0,max=1))
HTm<-round(rnorm(nsub,176.3,0.17*sqrt(4482)),digits=1)
HTf<-round(rnorm(nsub,162.2,0.16*sqrt(4857)),digits=1)
WTm<-round(exp(3.28+1.92*log(HTm/100))*exp(rnorm(nsub,0,0.14)),digits=1)
WTf<-round(exp(3.49+1.45*log(HTf/100))*exp(rnorm(nsub,0,0.17)),digits=1)
WT<-ifelse(SEX==1,WTf,WTm)
CRCL<-round(runif(nsub,30,140))
## id is in lower case to match the event table
cov.df <- tibble(id=seq_along(AGE), AGE=AGE, SEX=SEX, WT=WT, CRCL=CRCL)
print(cov.df)

#> # A tibble: 30 x 5
#>       id   AGE   SEX    WT  CRCL
#>    <int> <dbl> <dbl> <dbl> <dbl>
#>  1     1    66     1  49.4    83
#>  2     2    67     1  52.5    79
#>  3     3    33     0  97.9    37
#>  4     4    61     1  63.8    66
#>  5     5    51     0  71.8   127
#>  6     6    45     1  69.6   132
#>  7     7    56     0  61      73
#>  8     8    25     0  57.7    47
#>  9     9    52     1  58.7    65
#> 10    10    55     1  73.1    64
#> # ... with 20 more rows
…
e <- et() %>%
    ## Specify the id and weight based dosing from covariate data.frame
    ## This requires RxODE XXX 
    et(id=cov.df$id, amt=6*cov.df$WT, rate=6 * cov.df$WT) %>%
    ## Sampling is added for each ID
    et(s) %>%
    as.data.frame %>%
    ## Merge the event table with the covarite information
    merge(cov.df, by="id") %>%
    as_tibble

e

#> # A tibble: 900 x 12
#>       id    low  time   high cmt         amt  rate  evid   AGE   SEX    WT  CRCL
#>    <int>  <dbl> <dbl>  <dbl> <chr>     <dbl> <dbl> <int> <dbl> <dbl> <dbl> <dbl>
#>  1     1  0     0      0     (obs)       NA    NA      0    66     1  49.4    83
#>  2     1 NA     0     NA     (default)  296.  296.     1    66     1  49.4    83
#>  3     1  0.225 0.246  0.275 (obs)       NA    NA      0    66     1  49.4    83
#>  4     1  0.45  0.516  0.55  (obs)       NA    NA      0    66     1  49.4    83
#>  5     1  0.675 0.729  0.825 (obs)       NA    NA      0    66     1  49.4    83
#>  6     1  0.9   0.921  1.1   (obs)       NA    NA      0    66     1  49.4    83
#>  7     1  1.35  1.42   1.65  (obs)       NA    NA      0    66     1  49.4    83
#>  8     1  1.8   1.82   2.2   (obs)       NA    NA      0    66     1  49.4    83
#>  9     1  2.7   2.97   3.3   (obs)       NA    NA      0    66     1  49.4    83
#> 10     1  3.6   3.87   4.4   (obs)       NA    NA      0    66     1  49.4    83
#> # ... with 890 more rows
…
data <- rxSolve(m1, e,
             ## Lotri uses lower-triangular matrix rep. for named matrix
             omega=lotri(eta.cl ~ .306, 
                         eta.q ~0.0652,
                         eta.v1 ~.567,
                         eta.v2 ~ .191),
             sigma=lotri(prop.err ~ 0.15),
             addDosing = TRUE, addCov = TRUE)

print(data)

#> ______________________________ Solved RxODE object _____________________________
#> -- Parameters ($params): -------------------------------------------------------
#> # A tibble: 30 x 5
#>    id     eta.cl  eta.v1   eta.q  eta.v2
#>    <fct>   <dbl>   <dbl>   <dbl>   <dbl>
#>  1 1      0.563   0.580   0.0360 -0.246 
#>  2 2      0.0341  0.406  -0.139  -0.481 
#>  3 3     -0.447   0.0952 -0.185  -0.249 
#>  4 4     -0.988   0.248  -0.131  -0.449 
#>  5 5      0.144  -1.14    0.106   0.360 
#>  6 6     -0.689   0.407  -0.193  -0.200 
#>  7 7     -0.426  -0.706  -0.190  -0.234 
#>  8 8     -0.212   0.728   0.335   0.0665
#>  9 9      0.0884 -0.934   0.337   0.154 
#> 10 10    -0.557   1.29    0.0163 -0.140 
#> # ... with 20 more rows
#> -- Initial Conditions ($inits): ------------------------------------------------
#> centr  peri 
#>     0     0 
#> -- First part of data (object): ------------------------------------------------
#> # A tibble: 900 x 9
#>      id  evid   cmt   amt  time    DV   SEX    WT  CRCL
#>   <int> <int> <int> <dbl> <dbl> <dbl> <dbl> <dbl> <dbl>
#> 1     1     1     1  296. 0      0        1  49.4    83
#> 2     1     0    NA   NA  0      0        1  49.4    83
#> 3     1     0    NA   NA  0.246  2.32     1  49.4    83
#> 4     1     0    NA   NA  0.516 19.6      1  49.4    83
#> 5     1     0    NA   NA  0.729 23.2      1  49.4    83
#> 6     1     0    NA   NA  0.921 21.1      1  49.4    83
#> # ... with 894 more rows
…
#> unhandled error message: EE:[lsoda] 70000 steps taken before reaching tout
#>  @(lsoda.c:748

#> Warning: some ID(s) could not solve the ODEs correctly; These values are
#> replaced with 'NA'

print(s)

#> ______________________________ Solved RxODE object _____________________________
#> -- Parameters ($params): -------------------------------------------------------
#> # A tibble: 8,000 x 24
#>    sim.id id    `inv.Cl(inv==1)` `inv.Cl(inv==2)` `inv.Ka(inv==1)`
#>     <int> <fct>            <dbl>            <dbl>            <dbl>
#>  1      1 1               0.0186            0.116            0.188
#>  2      1 2               0.0186            0.116            0.188
#>  3      1 3               0.0186            0.116            0.188
#>  4      1 4               0.0186            0.116            0.188
#>  5      1 5               0.0186            0.116            0.188
#>  6      1 6               0.0186            0.116            0.188
#>  7      1 7               0.0186            0.116            0.188
#>  8      1 8               0.0186            0.116            0.188
#>  9      1 9               0.0186            0.116            0.188
#> 10      1 10              0.0186            0.116            0.188
#> # ... with 7,990 more rows, and 19 more variables: inv.Ka(inv==2) <dbl>,
#> #   eye.Cl(eye==1) <dbl>, eye.Cl(eye==2) <dbl>, eye.Ka(eye==1) <dbl>,
#> #   eye.Ka(eye==2) <dbl>, iov.Cl(occ==1) <dbl>, iov.Cl(occ==2) <dbl>,
#> #   iov.Ka(occ==1) <dbl>, iov.Ka(occ==2) <dbl>, V2 <dbl>, V3 <dbl>, TCl <dbl>,
#> #   eta.Cl <dbl>, TKA <dbl>, eta.Ka <dbl>, Q <dbl>, Kin <dbl>, Kout <dbl>,
#> #   EC50 <dbl>
#> -- Initial Conditions ($inits): ------------------------------------------------
#> depot centr  peri   eff 
#>     0     0     0     1 
#> 
#> Simulation with uncertainty in:
#> * parameters (s$thetaMat for changes)
#> * omega matrix (s$omegaList)
#> 
#> -- First part of data (object): ------------------------------------------------
#> # A tibble: 976,000 x 18
#>   sim.id    id  time inv.Cl inv.Ka eye.Cl eye.Ka iov.Cl  iov.Ka    C2      C3
#>    <int> <int>   [h]  <dbl>  <dbl>  <dbl>  <dbl>  <dbl>   <dbl> <dbl>   <dbl>
#> 1      1     1   0.0 0.0186  0.188 -0.104 0.0786 0.0247 -0.0530  0     0     
#> 2      1     1   0.1 0.0186  0.188 -0.296 0.0588 0.0247 -0.0530  3.00  0.0281
#> 3      1     1   4.0 0.0186  0.188 -0.104 0.0786 0.0247 -0.0530 22.4   9.90  
#> 4      1     1   4.1 0.0186  0.188 -0.296 0.0588 0.0247 -0.0530 57.9  10.1   
#> 5      1     1   8.0 0.0186  0.188 -0.104 0.0786 0.0247 -0.0530 20.1  12.4   
#> 6      1     1   8.1 0.0186  0.188 -0.296 0.0588 0.0247 -0.0530 15.6  12.4   
#> # ... with 975,994 more rows, and 7 more variables: CL <dbl>, KA <dbl>,
#> #   ef0 <dbl>, depot <dbl>, centr <dbl>, peri <dbl>, eff <dbl>
…
