Chapter 11 Simulation | rxode2 user manual
…
Now a simple solve

x <- rxSolve(mod1, et)
x

#> ── Solved rxode2 object ──
#> ── Parameters (x$params): ──
#>      KA      CL      V2       Q      V3     Kin    Kout    EC50 
#>   0.294  18.600  40.200  10.500 297.000   1.000   1.000 200.000 
#> ── Initial Conditions (x$inits): ──
#> depot centr  peri   eff 
#>     0     0     0     1 
#> ── First part of data (object): ──
#> # A tibble: 241 × 7
#>   time    C2    C3  depot centr  peri   eff
#>    [h] <dbl> <dbl>  <dbl> <dbl> <dbl> <dbl>
#> 1    0   0   0     10000     0     0   1   
#> 2    1  44.4 0.920  7453. 1784.  273.  1.08
#> 3    2  54.9 2.67   5554. 2206.  794.  1.18
#> 4    3  51.9 4.46   4140. 2087. 1324.  1.23
#> 5    4  44.5 5.98   3085. 1789. 1776.  1.23
#> 6    5  36.5 7.18   2299. 1467. 2132.  1.21
#> # … with 235 more rows

print(x)

#> ── Solved rxode2 object ──
#> ── Parameters ($params): ──
#>      KA      CL      V2       Q      V3     Kin    Kout    EC50 
#>   0.294  18.600  40.200  10.500 297.000   1.000   1.000 200.000 
#> ── Initial Conditions ($inits): ──
#> depot centr  peri   eff 
#>     0     0     0     1 
#> ── First part of data (object): ──
#> # A tibble: 241 × 7
#>   time    C2    C3  depot centr  peri   eff
#>    [h] <dbl> <dbl>  <dbl> <dbl> <dbl> <dbl>
#> 1    0   0   0     10000     0     0   1   
#> 2    1  44.4 0.920  7453. 1784.  273.  1.08
#> 3    2  54.9 2.67   5554. 2206.  794.  1.18
#> 4    3  51.9 4.46   4140. 2087. 1324.  1.23
#> 5    4  44.5 5.98   3085. 1789. 1776.  1.23
#> 6    5  36.5 7.18   2299. 1467. 2132.  1.21
#> # … with 235 more rows
…
x2 <- rxSolve(mod1, et %>% et(id=1:2), params=data.frame(CL=c(18.6, 7.6)))
print(x2)

#> ── Solved rxode2 object ──
#> ── Parameters ($params): ──
#> # A tibble: 2 × 9
#>   id       KA    CL    V2     Q    V3   Kin  Kout  EC50
#>   <fct> <dbl> <dbl> <dbl> <dbl> <dbl> <dbl> <dbl> <dbl>
#> 1 1     0.294  18.6  40.2  10.5   297     1     1   200
#> 2 2     0.294   7.6  40.2  10.5   297     1     1   200
#> ── Initial Conditions ($inits): ──
#> depot centr  peri   eff 
#>     0     0     0     1 
#> ── First part of data (object): ──
#> # A tibble: 482 × 8
#>      id time    C2    C3  depot centr  peri   eff
#>   <int>  [h] <dbl> <dbl>  <dbl> <dbl> <dbl> <dbl>
#> 1     1    0   0   0     10000     0     0   1   
#> 2     1    1  44.4 0.920  7453. 1784.  273.  1.08
#> 3     1    2  54.9 2.67   5554. 2206.  794.  1.18
#> 4     1    3  51.9 4.46   4140. 2087. 1324.  1.23
#> 5     1    4  44.5 5.98   3085. 1789. 1776.  1.23
#> 6     1    5  36.5 7.18   2299. 1467. 2132.  1.21
#> # … with 476 more rows
…
#> ℹ thetaMat has too many items, ignored: 'tlag'

print(sim)

#> ── Solved rxode2 object ──
#> ── Parameters ($params): ──
#> # A tibble: 10,000 × 9
#>    sim.id id      tcl crcl.cl  eta.cl    tv   eta.v   tka  eta.ka
#>     <int> <fct> <dbl>   <dbl>   <dbl> <dbl>   <dbl> <dbl>   <dbl>
#>  1      1 1      26.7    2.27  0.0525  2.52  0.692   4.83 -2.16  
#>  2      1 2      26.7    2.27  0.0383  2.52 -0.226   4.83 -1.49  
#>  3      1 3      26.7    2.27  0.207   2.52  0.346   4.83  0.939 
#>  4      1 4      26.7    2.27 -0.0993  2.52 -0.0124  4.83 -0.299 
#>  5      1 5      26.7    2.27 -0.308   2.52 -0.277   4.83  0.703 
#>  6      1 6      26.7    2.27  0.0300  2.52  0.278   4.83  1.36  
#>  7      1 7      26.7    2.27  0.0196  2.52  0.0696  4.83 -0.0215
#>  8      1 8      26.7    2.27 -0.233   2.52  0.0493  4.83 -0.573 
#>  9      1 9      26.7    2.27  0.693   2.52  0.277   4.83 -0.161 
#> 10      1 10     26.7    2.27 -0.0748  2.52  0.206   4.83 -0.296 
#> # … with 9,990 more rows
#> ── Initial Conditions ($inits): ──
#> named numeric(0)
#> 
#> Simulation with uncertainty in:
#> • parameters ($thetaMat for changes)
#> • omega matrix ($omegaList)
#> • sigma matrix ($sigmaList)
#> 
#> ── First part of data (object): ──
#> # A tibble: 50,000 × 10
#>   sim.id    id   time    cl     v    ka   ipred     obs    WT  CLCR
#>    <int> <int>    [h] <dbl> <dbl> <dbl>   <dbl>   <dbl> <dbl> <dbl>
#> 1      1     1 0.0155  301. 313.  0.559 0.00274 -3.08    62.2  69.3
#> 2      1     1 0.749   301. 313.  0.559 0.0760   0.736   62.2  69.3
#> 3      1     1 1.02    301. 313.  0.559 0.0845  -2.18    62.2  69.3
#> 4      1     1 3.41    301. 313.  0.559 0.0493   1.36    62.2  69.3
#> 5      1     1 7.81    301. 313.  0.559 0.00540  2.30    62.2  69.3
#> 6      1     2 0.0833 2582.  71.7 1.09  0.0376  -0.0849  35.7 105. 
#> # … with 49,994 more rows
…
#>  3 3    
#>  4 4    
#>  5 5    
#>  6 6    
#>  7 7    
#>  8 8    
#>  9 9    
#> 10 10   
#> 11 11   
#> 12 12   
#> ── Initial Conditions ($inits): ──
#>  depot center 
#>      0      0 
#> ── First part of data (object): ──
#> # A tibble: 132 × 8
#>      id  time    ka    cl     v    cp     depot center
#>   <int> <dbl> <dbl> <dbl> <dbl> <dbl>     <dbl>  <dbl>
#> 1     1  0     2.86  3.67  34.8  0    320.          0 
#> 2     1  0.25  2.86  3.67  34.8  4.62 157.        161.
#> 3     1  0.57  2.86  3.67  34.8  7.12  62.8       248.
#> 4     1  1.12  2.86  3.67  34.8  8.09  13.0       282.
#> 5     1  2.02  2.86  3.67  34.8  7.68   0.996     267.
#> 6     1  3.82  2.86  3.67  34.8  6.38   0.00581   222.
#> # … with 126 more rows

### Of course the fasest way to solve if you don't care about the rxode2 extra parameters is

solveData <- rxSolve(theo, parsDf, d, returnType="data.frame")

### solved data
dplyr::as.tbl(solveData)

#> # A tibble: 132 × 8
#>       id  time    ka    cl     v    cp   depot center
#>    <int> <dbl> <dbl> <dbl> <dbl> <dbl>   <dbl>  <dbl>
#>  1     1  0     2.86  3.67  34.8  0    3.20e+2    0  
#>  2     1  0.25  2.86  3.67  34.8  4.62 1.57e+2  161. 
#>  3     1  0.57  2.86  3.67  34.8  7.12 6.28e+1  248. 
#>  4     1  1.12  2.86  3.67  34.8  8.09 1.30e+1  282. 
#>  5     1  2.02  2.86  3.67  34.8  7.68 9.96e-1  267. 
#>  6     1  3.82  2.86  3.67  34.8  6.38 5.81e-3  222. 
#>  7     1  5.1   2.86  3.67  34.8  5.58 1.50e-4  194. 
#>  8     1  7.03  2.86  3.67  34.8  4.55 6.02e-7  158. 
#>  9     1  9.05  2.86  3.67  34.8  3.68 1.77e-9  128. 
#> 10     1 12.1   2.86  3.67  34.8  2.66 9.43e-9   92.6
#> # … with 122 more rows
…
