Chapter 12 Simulating Covariates | RxODE user manual
…
nsub=30
# Simulate Weight based on age and gender
AGE<-round(runif(nsub,min=18,max=70))
SEX<-round(runif(nsub,min=0,max=1))
HTm<-round(rnorm(nsub,176.3,0.17*sqrt(4482)),digits=1)
HTf<-round(rnorm(nsub,162.2,0.16*sqrt(4857)),digits=1)
WTm<-round(exp(3.28+1.92*log(HTm/100))*exp(rnorm(nsub,0,0.14)),digits=1)
WTf<-round(exp(3.49+1.45*log(HTf/100))*exp(rnorm(nsub,0,0.17)),digits=1)
WT<-ifelse(SEX==1,WTf,WTm)
CRCL<-round(runif(nsub,30,140))
## id is in lower case to match the event table
cov.df <- tibble(id=seq_along(AGE), AGE=AGE, SEX=SEX, WT=WT, CRCL=CRCL)
print(cov.df)

#> # A tibble: 30 x 5
#>       id   AGE   SEX    WT  CRCL
#>    <int> <dbl> <dbl> <dbl> <dbl>
#>  1     1    66     1  49.4    83
#>  2     2    67     1  52.5    79
#>  3     3    33     0  97.9    37
#>  4     4    61     1  63.8    66
#>  5     5    51     0  71.8   127
#>  6     6    45     1  69.6   132
#>  7     7    56     0  61      73
#>  8     8    25     0  57.7    47
#>  9     9    52     1  58.7    65
#> 10    10    55     1  73.1    64
#> # ... with 20 more rows
