Chapter 14 Solved compartment models | RxODE user manual
…
et  <- et(amt=10,time=0,cmt=depot) %>%
    et(seq(0,24,length.out=50))
cmt1 <- rxSolve(mod,et,params=c(ke=0.5))
cmt1

#> ▂▂▂▂▂▂▂▂▂▂▂▂▂▂▂▂▂▂▂▂ Solved RxODE object ▂▂▂▂▂▂▂▂▂▂▂▂▂▂▂▂▂▂▂
#> ── Parameters (x$params): ──────────────────────────────────
#>  ke   V 
#> 0.5 1.0 
#> ── Initial Conditions (x$inits): ───────────────────────────
#> named numeric(0)
#> ── First part of data (object): ────────────────────────────
#> # A tibble: 50 x 2
#>    time  ipre
#>   <dbl> <dbl>
#> 1 0     10   
#> 2 0.490  7.83
#> 3 0.980  6.13
#> 4 1.47   4.80
#> 5 1.96   3.75
#> 6 2.45   2.94
#> # … with 44 more rows
…
