Chapter 14 Solving Daptomycin simulation | RxODE user manual
…
data <- rxSolve(m1, e,
             ## Lotri uses lower-triangular matrix rep. for named matrix
             omega=lotri(eta.cl ~ .306, 
                         eta.q ~0.0652,
                         eta.v1 ~.567,
                         eta.v2 ~ .191),
             sigma=lotri(prop.err ~ 0.15),
             addDosing = TRUE, addCov = TRUE)

print(data)

#> ______________________________ Solved RxODE object _____________________________
#> -- Parameters ($params): -------------------------------------------------------
#> # A tibble: 30 x 5
#>    id     eta.cl  eta.v1   eta.q  eta.v2
#>    <fct>   <dbl>   <dbl>   <dbl>   <dbl>
#>  1 1      0.563   0.580   0.0360 -0.246 
#>  2 2      0.0341  0.406  -0.139  -0.481 
#>  3 3     -0.447   0.0952 -0.185  -0.249 
#>  4 4     -0.988   0.248  -0.131  -0.449 
#>  5 5      0.144  -1.14    0.106   0.360 
#>  6 6     -0.689   0.407  -0.193  -0.200 
#>  7 7     -0.426  -0.706  -0.190  -0.234 
#>  8 8     -0.212   0.728   0.335   0.0665
#>  9 9      0.0884 -0.934   0.337   0.154 
#> 10 10    -0.557   1.29    0.0163 -0.140 
#> # ... with 20 more rows
#> -- Initial Conditions ($inits): ------------------------------------------------
#> centr  peri 
#>     0     0 
#> -- First part of data (object): ------------------------------------------------
#> # A tibble: 900 x 9
#>      id  evid   cmt   amt  time    DV   SEX    WT  CRCL
#>   <int> <int> <int> <dbl> <dbl> <dbl> <dbl> <dbl> <dbl>
#> 1     1     1     1  296. 0      0        1  49.4    83
#> 2     1     0    NA   NA  0      0        1  49.4    83
#> 3     1     0    NA   NA  0.246  2.32     1  49.4    83
#> 4     1     0    NA   NA  0.516 19.6      1  49.4    83
#> 5     1     0    NA   NA  0.729 23.2      1  49.4    83
#> 6     1     0    NA   NA  0.921 21.1      1  49.4    83
#> # ... with 894 more rows
…
