Chapter 14 Stiff ODEs with Jacobian Specification | RxODE user manual
…
s1 <- Vtpol2 %>%  solve(et, method="lsoda")
print(s1)

#> ______________________________ Solved RxODE object _____________________________
#> -- Parameters ($params): -------------------------------------------------------
#> mu 
#>  1 
#> -- Initial Conditions ($inits): ------------------------------------------------
#>  y dy 
#>  2  0 
#> -- First part of data (object): ------------------------------------------------
#> # A tibble: 200 x 3
#>     time     y      dy
#>    <dbl> <dbl>   <dbl>
#> 1 0       22    0     
#> 2 0.0503  22.0 -0.0456
#> 3 0.101   22.0 -0.0456
#> 4 0.151   22.0 -0.0456
#> 5 0.201   22.0 -0.0456
#> 6 0.251   22.0 -0.0456
#> # ... with 194 more rows
…
While this is not stiff at mu=1, mu=1000 is a stiff system

s2 <- Vtpol2 %>%  solve(c(mu=1000), et)
print(s2)

#> ______________________________ Solved RxODE object _____________________________
#> -- Parameters ($params): -------------------------------------------------------
#>   mu 
#> 1000 
#> -- Initial Conditions ($inits): ------------------------------------------------
#>  y dy 
#>  2  0 
#> -- First part of data (object): ------------------------------------------------
#> # A tibble: 200 x 3
#>     time     y         dy
#>    <dbl> <dbl>      <dbl>
#> 1 0       22    0        
#> 2 0.0503  22.0 -0.0000455
#> 3 0.101   22.0 -0.0000455
#> 4 0.151   22.0 -0.0000455
#> 5 0.201   22.0 -0.0000455
#> 6 0.251   22.0 -0.0000455
#> # ... with 194 more rows
…
